%YAML 1.1
%TAG !u! tag:unity3d.com,2011:
--- !u!1001 &100100000
Prefab:
  m_ObjectHideFlags: 1
  serializedVersion: 2
  m_Modification:
    m_TransformParent: {fileID: 0}
    m_Modifications: []
    m_RemovedComponents: []
  m_ParentPrefab: {fileID: 0}
  m_RootGameObject: {fileID: 1513016451565494}
  m_IsPrefabParent: 1
--- !u!1 &1513016451565494
GameObject:
  m_ObjectHideFlags: 0
  m_PrefabParentObject: {fileID: 0}
  m_PrefabInternal: {fileID: 100100000}
  serializedVersion: 5
  m_Component:
  - component: {fileID: 4587370242279006}
  - component: {fileID: 114629827668372254}
  m_Layer: 0
  m_Name: ScriptHolder
  m_TagString: Untagged
  m_Icon: {fileID: 0}
  m_NavMeshLayer: 0
  m_StaticEditorFlags: 0
  m_IsActive: 1
--- !u!4 &4587370242279006
Transform:
  m_ObjectHideFlags: 1
  m_PrefabParentObject: {fileID: 0}
  m_PrefabInternal: {fileID: 100100000}
  m_GameObject: {fileID: 1513016451565494}
  m_LocalRotation: {x: 0, y: 0, z: 0, w: 1}
  m_LocalPosition: {x: 157.03267, y: 36.663902, z: 0}
  m_LocalScale: {x: 1, y: 1, z: 1}
  m_Children: []
  m_Father: {fileID: 0}
  m_RootOrder: 0
  m_LocalEulerAnglesHint: {x: 0, y: 0, z: 0}
--- !u!114 &114629827668372254
MonoBehaviour:
  m_ObjectHideFlags: 1
  m_PrefabParentObject: {fileID: 0}
  m_PrefabInternal: {fileID: 100100000}
  m_GameObject: {fileID: 1513016451565494}
  m_Enabled: 1
  m_EditorHideFlags: 0
  m_Script: {fileID: 11500000, guid: 0ab83c29d2081f14aab1cf548f791f6e, type: 3}
  m_Name: 
  m_EditorClassIdentifier: 
  cam: {fileID: 0}
  rayMaxDistance: 100
  inventorSize: 7
  inventroryBar: {fileID: 0}
  hintObject: {fileID: 0}
  itemPrefab: {fileID: 1265563564419968, guid: 4f0549e4a4514854f9c5b854a1d31b75, type: 2}
  frame: {fileID: 0}
  tileOffset: 200
  placeing: 0
  layerMask:
    serializedVersion: 2
    m_Bits: 512
  layerMaskBar:
    serializedVersion: 2
    m_Bits: 9216
  shaking: 0
  inventory_Drink: {fileID: 1995645358383246, guid: 6357dd4789074ae4d98a480be2ca17cc,
    type: 2}
  coctailGlass: {fileID: 1067775935270104, guid: f865536937ed4484d9865e057e384761,
    type: 2}
  rawImage:
  - {fileID: 2800000, guid: 24e4169520153422c8d5682ab28df2c6, type: 3}
  - {fileID: 2800000, guid: 601bd487aa20b45bbbd6301a877d903e, type: 3}
  - {fileID: 2800000, guid: 93a351fac82aa4c49b331cd92f9f0098, type: 3}
  - {fileID: 2800000, guid: 8a8e067f1bb34475fb89deb8e8ef65d3, type: 3}
  - {fileID: 2800000, guid: a6da0f7afca9f488ab91cbfed568e52a, type: 3}
  - {fileID: 2800000, guid: 14d22b071a1d34ee9824aaa7ce24dae4, type: 3}
